[{"address1": ["\n3636 Sansom St\n"], "name": ["Sabrina's Cafe @ Powelton"]},
{"address1": ["\n3945 Chestnut St\n"], "name": ["Pod"]},
{"address1": ["\n3420 Sansom St\n"], "name": ["Distrito"]},
{"address1": ["\n4004 Chestnut St\n"], "name": ["White Dog Cafe"]},
{"address1": ["\n3925 Walnut St\n"], "name": ["New Delhi"]},
{"address1": ["\n4728 Baltimore Ave\n"], "name": ["Bobby's Burger Palace"]},
{"address1": ["\n3408 Sansom St\n"], "name": ["Vientiane Caf\u00e9"]},
{"address1": ["\n229 S 45th St\n"], "name": ["New Deck Tavern"]},
{"address1": ["\n227 N 34th St\n"], "name": ["Abyssinia Ethiopian"]},
{"address1": ["\n701 S 50th St\n"], "name": ["Sabrina's Cafe @ Powelton"]},
{"address1": ["\n3925 Walnut St\n"], "name": ["Dock Street Brewery"]},
{"address1": ["\n4333 Spruce St\n"], "name": ["City Tap House"]},
{"address1": ["\n501 S 45th St\n"], "name": ["Local 44"]},
{"address1": ["\n3801 Chestnut St\n"], "name": ["Marigold Kitchen"]},
{"address1": ["\n4500 Walnut St\n"], "name": ["Koreana"]},
{"address1": ["\n4201 Chestnut St\n"], "name": ["Saad's Halal Place"]},
{"address1": ["\n816 S 47th St\n"], "name": ["Kabobeesh"]},
{"address1": ["\n3333 Market Street\n"], "name": ["Vietnam Cafe"]},
{"address1": ["\n4317 Chestnut St\n"], "name": ["Landmark Americana - University City"]},
{"address1": ["\n222 S 40th St\n"], "name": ["Kilimandjaro"]},
{"address1": ["\nS 34th St & Walnut St\n"], "name": ["Greek Lady"]},
{"address1": ["\n60 S 38th St\n"], "name": ["Magic Carpet Foods"]},
{"address1": ["\n3000 Market St\n"], "name": ["Sitar India"]},
{"address1": ["\n4006 Chestnut St\n"], "name": ["Slainte Pub & Grill"]},
{"address1": ["\n3925 Walnut St\n"], "name": ["Pattaya Grill"]},
{"address1": ["\n3402 Sansom Street\n"], "name": ["Capogiro Gelateria"]},
{"address1": ["\n4708 Baltimore Ave\n"], "name": ["Baby Blues BBQ"]},
{"address1": ["\n4309 Locust St\n"], "name": ["Dahlak"]},
{"address1": ["\n4700 Baltimore Ave\n"], "name": ["Koch's Deli"]},
{"address1": ["\n4420 Walnut Street\n"], "name": ["Lee's Deli"]},
{"address1": ["\n3505 Lancaster Ave\n"], "name": ["Manakeesh Cafe Bakery"]},
{"address1": ["\n261 S 44th St\n"], "name": ["Savas Brick Oven Pizza"]},
{"address1": ["\n3549 Chestnut street\n"], "name": ["Honest Tom's Taco Shop"]},
{"address1": ["\n3630 Lancaster Ave\n"], "name": ["Sang Kee Noodle House"]},
{"address1": ["\n4248 Spruce St\n"], "name": ["Lemon Grass Thai"]},
{"address1": ["\n2929 Arch Street\n"], "name": ["Pho Cafe Saigon"]},
{"address1": ["\n4423 Chestnut St\n"], "name": ["JG Domestic"]},
{"address1": ["\n4447 Chestnut St\n"], "name": ["Kaffa Crossing"]},
{"address1": ["\n4239 Baltimore Ave\n"], "name": ["Wah-Gi-Wah"]},
{"address1": ["\n3931 Walnut St\n"], "name": ["Green Line Cafe"]},
{"address1": ["\n3401 Walnut St\n"], "name": ["Hummus"]},
{"address1": ["\n4345 Lancaster Ave\n"], "name": ["Mad Mex"]},
{"address1": ["\n3606 Chestnut St\n"], "name": ["Dwight's Southern Bar-B-Q"]},
{"address1": ["\n4013 Walnut St\n"], "name": ["Kiwi Yogurt"]},
{"address1": ["\n3942 Spruce St\n"], "name": ["Metropolitan Bakery & Cafe"]},
{"address1": ["\n700 N 43rd St\n"], "name": ["Allegro Pizza"]},
{"address1": ["\n106 S 40th St\n"], "name": ["Bottom of the Sea"]},
{"address1": ["\n3604 Chestnut St\n"], "name": ["Tandoor India"]},
{"address1": ["\n3513 Lancaster Ave\n"], "name": ["Wawa"]}][[[{"address1": ["\n3636 Sansom St\n"], "name": ["Sabrina's Cafe @ Powelton"]},
{"address1": ["\n3945 Chestnut St\n"], "name": ["Pod"]},
{"address1": ["\n3420 Sansom St\n"], "name": ["Distrito"]},
{"address1": ["\n4004 Chestnut St\n"], "name": ["White Dog Cafe"]},
{"address1": ["\n3925 Walnut St\n"], "name": ["New Delhi"]},
{"address1": ["\n4728 Baltimore Ave\n"], "name": ["Bobby's Burger Palace"]},
{"address1": ["\n3408 Sansom St\n"], "name": ["Vientiane Caf\u00e9"]},
{"address1": ["\n229 S 45th St\n"], "name": ["New Deck Tavern"]},
{"address1": ["\n227 N 34th St\n"], "name": ["Abyssinia Ethiopian"]},
{"address1": ["\n701 S 50th St\n"], "name": ["Sabrina's Cafe @ Powelton"]},
{"address1": ["\n3925 Walnut St\n"], "name": ["Dock Street Brewery"]},
{"address1": ["\n4333 Spruce St\n"], "name": ["City Tap House"]},
{"address1": ["\n501 S 45th St\n"], "name": ["Local 44"]},
{"address1": ["\n3801 Chestnut St\n"], "name": ["Marigold Kitchen"]},
{"address1": ["\n4500 Walnut St\n"], "name": ["Koreana"]},
{"address1": ["\n4201 Chestnut St\n"], "name": ["Saad's Halal Place"]},
{"address1": ["\n816 S 47th St\n"], "name": ["Kabobeesh"]},
{"address1": ["\n3333 Market Street\n"], "name": ["Vietnam Cafe"]},
{"address1": ["\n4317 Chestnut St\n"], "name": ["Landmark Americana - University City"]},
{"address1": ["\n222 S 40th St\n"], "name": ["Kilimandjaro"]},
{"address1": ["\nS 34th St & Walnut St\n"], "name": ["Greek Lady"]},
{"address1": ["\n60 S 38th St\n"], "name": ["Magic Carpet Foods"]},
{"address1": ["\n4006 Chestnut St\n"], "name": ["Sitar India"]},
{"address1": ["\n3000 Market St\n"], "name": ["Pattaya Grill"]},
{"address1": ["\n3925 Walnut St\n"], "name": ["Slainte Pub & Grill"]},
{"address1": ["\n3402 Sansom Street\n"], "name": ["Capogiro Gelateria"]},
{"address1": ["\n4708 Baltimore Ave\n"], "name": ["Baby Blues BBQ"]},
{"address1": ["\n4309 Locust St\n"], "name": ["Dahlak"]},
{"address1": ["\n4700 Baltimore Ave\n"], "name": ["Koch's Deli"]},
{"address1": ["\n4420 Walnut Street\n"], "name": ["Lee's Deli"]},
{"address1": ["\n3505 Lancaster Ave\n"], "name": ["Manakeesh Cafe Bakery"]},
{"address1": ["\n261 S 44th St\n"], "name": ["Savas Brick Oven Pizza"]},
{"address1": ["\n3630 Lancaster Ave\n"], "name": ["Honest Tom's Taco Shop"]},
{"address1": ["\n3549 Chestnut street\n"], "name": ["Lemon Grass Thai"]},
{"address1": ["\n4248 Spruce St\n"], "name": ["Sang Kee Noodle House"]},
{"address1": ["\n4447 Chestnut St\n"], "name": ["Pho Cafe Saigon"]},
{"address1": ["\n3931 Walnut St\n"], "name": ["Wah-Gi-Wah"]},
{"address1": ["\n2929 Arch Street\n"], "name": ["Hummus"]},
{"address1": ["\n4423 Chestnut St\n"], "name": ["JG Domestic"]},
{"address1": ["\n4239 Baltimore Ave\n"], "name": ["Kaffa Crossing"]},
{"address1": ["\n3401 Walnut St\n"], "name": ["Green Line Cafe"]},
{"address1": ["\n4345 Lancaster Ave\n"], "name": ["Mad Mex"]},
{"address1": ["\n3606 Chestnut St\n"], "name": ["Dwight's Southern Bar-B-Q"]},
{"address1": ["\n4013 Walnut St\n"], "name": ["Kiwi Yogurt"]},
{"address1": ["\n106 S 40th St\n"], "name": ["Metropolitan Bakery & Cafe"]},
{"address1": ["\n3942 Spruce St\n"], "name": ["Tandoor India"]},
{"address1": ["\n700 N 43rd St\n"], "name": ["Allegro Pizza"]},
{"address1": ["\n3604 Chestnut St\n"], "name": ["Bottom of the Sea"]},
{"address1": ["\n3131 Walnut St\n"], "name": ["Wawa"]}][[{"address1": ["\n3636 Sansom St\n"], "name": ["Sabrina's Cafe @ Powelton"]},
{"address1": ["\n3945 Chestnut St\n"], "name": ["Pod"]},
{"address1": ["\n3420 Sansom St\n"], "name": ["Distrito"]},
{"address1": ["\n4004 Chestnut St\n"], "name": ["White Dog Cafe"]},
{"address1": ["\n3925 Walnut St\n"], "name": ["New Delhi"]},
{"address1": ["\n4728 Baltimore Ave\n"], "name": ["Bobby's Burger Palace"]},
{"address1": ["\n3408 Sansom St\n"], "name": ["Vientiane Caf\u00e9"]},
{"address1": ["\n229 S 45th St\n"], "name": ["New Deck Tavern"]},
{"address1": ["\n227 N 34th St\n"], "name": ["Abyssinia Ethiopian"]},
{"address1": ["\n701 S 50th St\n"], "name": ["Sabrina's Cafe @ Powelton"]},
{"address1": ["\n3925 Walnut St\n"], "name": ["Dock Street Brewery"]},
{"address1": ["\n4333 Spruce St\n"], "name": ["City Tap House"]},
{"address1": ["\n501 S 45th St\n"], "name": ["Local 44"]},
{"address1": ["\n3801 Chestnut St\n"], "name": ["Marigold Kitchen"]},
{"address1": ["\n4500 Walnut St\n"], "name": ["Koreana"]},
{"address1": ["\n4201 Chestnut St\n"], "name": ["Saad's Halal Place"]},
{"address1": ["\n816 S 47th St\n"], "name": ["Kabobeesh"]},
{"address1": ["\n3333 Market Street\n"], "name": ["Vietnam Cafe"]},
{"address1": ["\n4317 Chestnut St\n"], "name": ["Landmark Americana - University City"]},
{"address1": ["\n222 S 40th St\n"], "name": ["Kilimandjaro"]},
{"address1": ["\nS 34th St & Walnut St\n"], "name": ["Greek Lady"]},
{"address1": ["\n60 S 38th St\n"], "name": ["Magic Carpet Foods"]},
{"address1": ["\n4006 Chestnut St\n"], "name": ["Sitar India"]},
{"address1": ["\n3000 Market St\n"], "name": ["Pattaya Grill"]},
{"address1": ["\n3925 Walnut St\n"], "name": ["Slainte Pub & Grill"]},
{"address1": ["\n3402 Sansom Street\n"], "name": ["Capogiro Gelateria"]},
{"address1": ["\n4708 Baltimore Ave\n"], "name": ["Baby Blues BBQ"]},
{"address1": ["\n4309 Locust St\n"], "name": ["Dahlak"]},
{"address1": ["\n4700 Baltimore Ave\n"], "name": ["Koch's Deli"]},
{"address1": ["\n4420 Walnut Street\n"], "name": ["Lee's Deli"]},
{"address1": ["\n3505 Lancaster Ave\n"], "name": ["Manakeesh Cafe Bakery"]},
{"address1": ["\n261 S 44th St\n"], "name": ["Savas Brick Oven Pizza"]},
{"address1": ["\n3630 Lancaster Ave\n"], "name": ["Honest Tom's Taco Shop"]},
{"address1": ["\n3549 Chestnut street\n"], "name": ["Lemon Grass Thai"]},
{"address1": ["\n4248 Spruce St\n"], "name": ["Sang Kee Noodle House"]},
{"address1": ["\n4447 Chestnut St\n"], "name": ["Pho Cafe Saigon"]},
{"address1": ["\n3931 Walnut St\n"], "name": ["Wah-Gi-Wah"]},
{"address1": ["\n2929 Arch Street\n"], "name": ["Hummus"]},
{"address1": ["\n4423 Chestnut St\n"], "name": ["JG Domestic"]},
{"address1": ["\n4239 Baltimore Ave\n"], "name": ["Kaffa Crossing"]},
{"address1": ["\n3401 Walnut St\n"], "name": ["Green Line Cafe"]},
{"address1": ["\n4345 Lancaster Ave\n"], "name": ["Mad Mex"]},
{"address1": ["\n3606 Chestnut St\n"], "name": ["Dwight's Southern Bar-B-Q"]},
{"address1": ["\n4013 Walnut St\n"], "name": ["Kiwi Yogurt"]},
{"address1": ["\n106 S 40th St\n"], "name": ["Metropolitan Bakery & Cafe"]},
{"address1": ["\n3942 Spruce St\n"], "name": ["Tandoor India"]},
{"address1": ["\n700 N 43rd St\n"], "name": ["Allegro Pizza"]},
{"address1": ["\n3604 Chestnut St\n"], "name": ["Bottom of the Sea"]},
{"address1": ["\n3131 Walnut St\n"], "name": ["Wawa"]}][{"address1": ["\n3636 Sansom St\n"], "name": ["Sabrina's Cafe @ Powelton"]},
{"address1": ["\n3945 Chestnut St\n"], "name": ["Pod"]},
{"address1": ["\n3420 Sansom St\n"], "name": ["Distrito"]},
{"address1": ["\n4004 Chestnut St\n"], "name": ["White Dog Cafe"]},
{"address1": ["\n3925 Walnut St\n"], "name": ["New Delhi"]},
{"address1": ["\n4728 Baltimore Ave\n"], "name": ["Bobby's Burger Palace"]},
{"address1": ["\n3408 Sansom St\n"], "name": ["Vientiane Caf\u00e9"]},
{"address1": ["\n229 S 45th St\n"], "name": ["New Deck Tavern"]},
{"address1": ["\n227 N 34th St\n"], "name": ["Abyssinia Ethiopian"]},
{"address1": ["\n701 S 50th St\n"], "name": ["Sabrina's Cafe @ Powelton"]},
{"address1": ["\n3925 Walnut St\n"], "name": ["Dock Street Brewery"]},
{"address1": ["\n4333 Spruce St\n"], "name": ["City Tap House"]},
{"address1": ["\n501 S 45th St\n"], "name": ["Local 44"]},
{"address1": ["\n3801 Chestnut St\n"], "name": ["Marigold Kitchen"]},
{"address1": ["\n4500 Walnut St\n"], "name": ["Koreana"]},
{"address1": ["\n4201 Chestnut St\n"], "name": ["Saad's Halal Place"]},
{"address1": ["\n816 S 47th St\n"], "name": ["Kabobeesh"]},
{"address1": ["\n3333 Market Street\n"], "name": ["Vietnam Cafe"]},
{"address1": ["\n4317 Chestnut St\n"], "name": ["Landmark Americana - University City"]},
{"address1": ["\n222 S 40th St\n"], "name": ["Kilimandjaro"]},
{"address1": ["\nS 34th St & Walnut St\n"], "name": ["Greek Lady"]},
{"address1": ["\n60 S 38th St\n"], "name": ["Magic Carpet Foods"]},
{"address1": ["\n4006 Chestnut St\n"], "name": ["Sitar India"]},
{"address1": ["\n3000 Market St\n"], "name": ["Pattaya Grill"]},
{"address1": ["\n3925 Walnut St\n"], "name": ["Slainte Pub & Grill"]},
{"address1": ["\n3402 Sansom Street\n"], "name": ["Capogiro Gelateria"]},
{"address1": ["\n4700 Baltimore Ave\n"], "name": ["Baby Blues BBQ"]},
{"address1": ["\n4708 Baltimore Ave\n"], "name": ["Lee's Deli"]},
{"address1": ["\n4309 Locust St\n"], "name": ["Dahlak"]},
{"address1": ["\n4420 Walnut Street\n"], "name": ["Koch's Deli"]},
{"address1": ["\n3505 Lancaster Ave\n"], "name": ["Manakeesh Cafe Bakery"]},
{"address1": ["\n261 S 44th St\n"], "name": ["Savas Brick Oven Pizza"]},
{"address1": ["\n3630 Lancaster Ave\n"], "name": ["Honest Tom's Taco Shop"]},
{"address1": ["\n3549 Chestnut street\n"], "name": ["Lemon Grass Thai"]},
{"address1": ["\n4248 Spruce St\n"], "name": ["Sang Kee Noodle House"]},
{"address1": ["\n4447 Chestnut St\n"], "name": ["Pho Cafe Saigon"]},
{"address1": ["\n3931 Walnut St\n"], "name": ["Wah-Gi-Wah"]},
{"address1": ["\n2929 Arch Street\n"], "name": ["Hummus"]},
{"address1": ["\n4423 Chestnut St\n"], "name": ["JG Domestic"]},
{"address1": ["\n4239 Baltimore Ave\n"], "name": ["Kaffa Crossing"]},
{"address1": ["\n3401 Walnut St\n"], "name": ["Green Line Cafe"]},
{"address1": ["\n4345 Lancaster Ave\n"], "name": ["Mad Mex"]},
{"address1": ["\n3606 Chestnut St\n"], "name": ["Dwight's Southern Bar-B-Q"]},
{"address1": ["\n4013 Walnut St\n"], "name": ["Kiwi Yogurt"]},
{"address1": ["\n106 S 40th St\n"], "name": ["Metropolitan Bakery & Cafe"]},
{"address1": ["\n3942 Spruce St\n"], "name": ["Tandoor India"]},
{"address1": ["\n700 N 43rd St\n"], "name": ["Allegro Pizza"]},
{"address1": ["\n3604 Chestnut St\n"], "name": ["Bottom of the Sea"]},
{"address1": ["\n3131 Walnut St\n"], "name": ["Wawa"]}][{"address1": ["\n3636 Sansom St\n"], "name": []},
{"address1": ["\n3945 Chestnut St\n"], "name": ["Sabrina's Cafe @ Powelton"]},
{"address1": ["\n3420 Sansom St\n"], "name": ["Pod"]},
{"address1": ["\n4004 Chestnut St\n"], "name": ["Distrito"]},
{"address1": ["\n3925 Walnut St\n"], "name": ["White Dog Cafe"]},
{"address1": ["\n4728 Baltimore Ave\n"], "name": ["New Delhi"]},
{"address1": ["\n3408 Sansom St\n"], "name": ["Bobby's Burger Palace"]},
{"address1": ["\n229 S 45th St\n"], "name": ["Vientiane Caf\u00e9"]},
{"address1": ["\n227 N 34th St\n"], "name": ["New Deck Tavern"]},
{"address1": ["\n701 S 50th St\n"], "name": ["Abyssinia Ethiopian"]},
{"address1": ["\n3925 Walnut St\n"], "name": ["Sabrina's Cafe @ Powelton"]},
{"address1": ["\n4333 Spruce St\n"], "name": ["Dock Street Brewery"]},
{"address1": ["\n3801 Chestnut St\n"], "name": ["City Tap House"]},
{"address1": ["\n501 S 45th St\n"], "name": ["Local 44"]},
{"address1": ["\n4201 Chestnut St\n"], "name": ["Koreana"]},
{"address1": ["\n4500 Walnut St\n"], "name": ["Marigold Kitchen"]},
{"address1": ["\n816 S 47th St\n"], "name": ["Kabobeesh"]},
{"address1": ["\n3333 Market Street\n"], "name": ["Saad's Halal Place"]},
{"address1": ["\n4317 Chestnut St\n"], "name": ["Vietnam Cafe"]},
{"address1": ["\n222 S 40th St\n"], "name": ["Landmark Americana - University City"]},
{"address1": ["\nS 34th St & Walnut St\n"], "name": ["Kilimandjaro"]},
{"address1": ["\n60 S 38th St\n"], "name": ["Greek Lady"]},
{"address1": ["\n4006 Chestnut St\n"], "name": ["Magic Carpet Foods"]},
{"address1": ["\n3000 Market St\n"], "name": ["Sitar India"]},
{"address1": ["\n3925 Walnut St\n"], "name": ["Pattaya Grill"]},
{"address1": ["\n3402 Sansom Street\n"], "name": ["Slainte Pub & Grill"]},
{"address1": ["\n4700 Baltimore Ave\n"], "name": ["Capogiro Gelateria"]},
{"address1": ["\n4420 Walnut Street\n"], "name": ["Baby Blues BBQ"]},
{"address1": ["\n4708 Baltimore Ave\n"], "name": ["Lee's Deli"]},
{"address1": ["\n4309 Locust St\n"], "name": ["Manakeesh Cafe Bakery"]},
{"address1": ["\n3505 Lancaster Ave\n"], "name": ["Dahlak"]},
{"address1": ["\n261 S 44th St\n"], "name": ["Koch's Deli"]},
{"address1": ["\n3630 Lancaster Ave\n"], "name": ["Savas Brick Oven Pizza"]},
{"address1": ["\n3549 Chestnut street\n"], "name": ["Honest Tom's Taco Shop"]},
{"address1": ["\n4248 Spruce St\n"], "name": ["Lemon Grass Thai"]},
{"address1": ["\n4447 Chestnut St\n"], "name": ["Sang Kee Noodle House"]},
{"address1": ["\n3931 Walnut St\n"], "name": ["Pho Cafe Saigon"]},
{"address1": ["\n2929 Arch Street\n"], "name": ["Wah-Gi-Wah"]},
{"address1": ["\n4423 Chestnut St\n"], "name": ["Hummus"]},
{"address1": ["\n4239 Baltimore Ave\n"], "name": ["JG Domestic"]},
{"address1": ["\n3401 Walnut St\n"], "name": ["Kaffa Crossing"]},
{"address1": ["\n3606 Chestnut St\n"], "name": ["Green Line Cafe"]},
{"address1": ["\n4345 Lancaster Ave\n"], "name": ["Mad Mex"]},
{"address1": ["\n4013 Walnut St\n"], "name": ["Kiwi Yogurt"]},
{"address1": ["\n106 S 40th St\n"], "name": ["Dwight's Southern Bar-B-Q"]},
{"address1": ["\n3942 Spruce St\n"], "name": ["Metropolitan Bakery & Cafe"]},
{"address1": ["\n700 N 43rd St\n"], "name": ["Tandoor India"]},
{"address1": ["\n3604 Chestnut St\n"], "name": ["Allegro Pizza"]},
{"address1": ["\n3131 Walnut St\n"], "name": ["Bottom of the Sea"]}][{"address1": ["\n3636 Sansom St\n"], "name": []},
{"address1": ["\n3945 Chestnut St\n"], "name": ["Sabrina's Cafe @ Powelton"]},
{"address1": ["\n3420 Sansom St\n"], "name": ["Pod"]},
{"address1": ["\n4004 Chestnut St\n"], "name": ["Distrito"]},
{"address1": ["\n3925 Walnut St\n"], "name": ["White Dog Cafe"]},
{"address1": ["\n4728 Baltimore Ave\n"], "name": ["New Delhi"]},
{"address1": ["\n3408 Sansom St\n"], "name": ["Bobby's Burger Palace"]},
{"address1": ["\n229 S 45th St\n"], "name": ["Vientiane Caf\u00e9"]},
{"address1": ["\n227 N 34th St\n"], "name": ["New Deck Tavern"]},
{"address1": ["\n701 S 50th St\n"], "name": ["Abyssinia Ethiopian"]},
{"address1": ["\n4333 Spruce St\n"], "name": ["Sabrina's Cafe @ Powelton"]},
{"address1": ["\n3925 Walnut St\n"], "name": ["Dock Street Brewery"]},
{"address1": ["\n3801 Chestnut St\n"], "name": ["Local 44"]},
{"address1": ["\n501 S 45th St\n"], "name": ["City Tap House"]},
{"address1": ["\n4201 Chestnut St\n"], "name": ["Koreana"]},
{"address1": ["\n4500 Walnut St\n"], "name": ["Marigold Kitchen"]},
{"address1": ["\n816 S 47th St\n"], "name": ["Kabobeesh"]},
{"address1": ["\n3333 Market Street\n"], "name": ["Saad's Halal Place"]},
{"address1": ["\n4317 Chestnut St\n"], "name": ["Vietnam Cafe"]},
{"address1": ["\n222 S 40th St\n"], "name": ["Landmark Americana - University City"]},
{"address1": ["\nS 34th St & Walnut St\n"], "name": ["Kilimandjaro"]},
{"address1": ["\n60 S 38th St\n"], "name": ["Greek Lady"]},
{"address1": ["\n4006 Chestnut St\n"], "name": ["Magic Carpet Foods"]},
{"address1": ["\n3000 Market St\n"], "name": ["Sitar India"]},
{"address1": ["\n3925 Walnut St\n"], "name": ["Pattaya Grill"]},
{"address1": ["\n3402 Sansom Street\n"], "name": ["Slainte Pub & Grill"]},
{"address1": ["\n4700 Baltimore Ave\n"], "name": ["Capogiro Gelateria"]},
{"address1": ["\n4420 Walnut Street\n"], "name": ["Baby Blues BBQ"]},
{"address1": ["\n4708 Baltimore Ave\n"], "name": ["Lee's Deli"]},
{"address1": ["\n4309 Locust St\n"], "name": ["Manakeesh Cafe Bakery"]},
{"address1": ["\n3505 Lancaster Ave\n"], "name": ["Dahlak"]},
{"address1": ["\n261 S 44th St\n"], "name": ["Koch's Deli"]},
{"address1": ["\n3630 Lancaster Ave\n"], "name": ["Savas Brick Oven Pizza"]},
{"address1": ["\n3549 Chestnut street\n"], "name": ["Honest Tom's Taco Shop"]},
{"address1": ["\n4248 Spruce St\n"], "name": ["Lemon Grass Thai"]},
{"address1": ["\n4447 Chestnut St\n"], "name": ["Sang Kee Noodle House"]},
{"address1": ["\n3931 Walnut St\n"], "name": ["Pho Cafe Saigon"]},
{"address1": ["\n2929 Arch Street\n"], "name": ["Wah-Gi-Wah"]},
{"address1": ["\n4239 Baltimore Ave\n"], "name": ["Hummus"]},
{"address1": ["\n4423 Chestnut St\n"], "name": ["JG Domestic"]},
{"address1": ["\n3401 Walnut St\n"], "name": ["Green Line Cafe"]},
{"address1": ["\n3606 Chestnut St\n"], "name": ["Kaffa Crossing"]},
{"address1": ["\n4345 Lancaster Ave\n"], "name": ["Mad Mex"]},
{"address1": ["\n4013 Walnut St\n"], "name": ["Kiwi Yogurt"]},
{"address1": ["\n106 S 40th St\n"], "name": ["Dwight's Southern Bar-B-Q"]},
{"address1": ["\n3942 Spruce St\n"], "name": ["Metropolitan Bakery & Cafe"]},
{"address1": ["\n700 N 43rd St\n"], "name": ["Tandoor India"]},
{"address1": ["\n3604 Chestnut St\n"], "name": ["Allegro Pizza"]},
{"address1": ["\n3131 Walnut St\n"], "name": ["Bottom of the Sea"]}][{"address1": ["\n3636 Sansom St\n"], "name": []},
{"address1": ["\n3945 Chestnut St\n"], "name": ["Sabrina's Cafe @ Powelton"]},
{"address1": ["\n3420 Sansom St\n"], "name": ["Pod"]},
{"address1": ["\n4004 Chestnut St\n"], "name": ["Distrito"]},
{"address1": ["\n3925 Walnut St\n"], "name": ["White Dog Cafe"]},
{"address1": ["\n4728 Baltimore Ave\n"], "name": ["New Delhi"]},
{"address1": ["\n3408 Sansom St\n"], "name": ["Bobby's Burger Palace"]},
{"address1": ["\n229 S 45th St\n"], "name": ["Vientiane Caf\u00e9"]},
{"address1": ["\n227 N 34th St\n"], "name": ["New Deck Tavern"]},
{"address1": ["\n701 S 50th St\n"], "name": ["Abyssinia Ethiopian"]},
{"address1": ["\n3801 Chestnut St\n"], "name": ["Sabrina's Cafe @ Powelton"]},
{"address1": ["\n4333 Spruce St\n"], "name": ["Dock Street Brewery"]},
{"address1": ["\n3925 Walnut St\n"], "name": ["Koreana"]},
{"address1": ["\n501 S 45th St\n"], "name": ["Local 44"]},
{"address1": ["\n4201 Chestnut St\n"], "name": ["City Tap House"]},
{"address1": ["\n4500 Walnut St\n"], "name": ["Marigold Kitchen"]},
{"address1": ["\n816 S 47th St\n"], "name": ["Kabobeesh"]},
{"address1": ["\n4317 Chestnut St\n"], "name": ["Saad's Halal Place"]},
{"address1": ["\n3333 Market Street\n"], "name": ["Vietnam Cafe"]},
{"address1": ["\n60 S 38th St\n"], "name": ["Kilimandjaro"]},
{"address1": ["\n222 S 40th St\n"], "name": ["Landmark Americana - University City"]},
{"address1": ["\nS 34th St & Walnut St\n"], "name": ["Sitar India"]},
{"address1": ["\n4006 Chestnut St\n"], "name": ["Greek Lady"]},
{"address1": ["\n3000 Market St\n"], "name": ["Magic Carpet Foods"]},
{"address1": ["\n3925 Walnut St\n"], "name": ["Pattaya Grill"]},
{"address1": ["\n3402 Sansom Street\n"], "name": ["Slainte Pub & Grill"]},
{"address1": ["\n4420 Walnut Street\n"], "name": ["Capogiro Gelateria"]},
{"address1": ["\n4708 Baltimore Ave\n"], "name": ["Baby Blues BBQ"]},
{"address1": ["\n4700 Baltimore Ave\n"], "name": ["Manakeesh Cafe Bakery"]},
{"address1": ["\n4309 Locust St\n"], "name": ["Dahlak"]},
{"address1": ["\n3505 Lancaster Ave\n"], "name": ["Lee's Deli"]},
{"address1": ["\n3630 Lancaster Ave\n"], "name": ["Koch's Deli"]},
{"address1": ["\n261 S 44th St\n"], "name": ["Savas Brick Oven Pizza"]},
{"address1": ["\n3549 Chestnut street\n"], "name": ["Lemon Grass Thai"]},
{"address1": ["\n4248 Spruce St\n"], "name": ["Honest Tom's Taco Shop"]},
{"address1": ["\n4447 Chestnut St\n"], "name": ["Sang Kee Noodle House"]},
{"address1": ["\n3931 Walnut St\n"], "name": ["Pho Cafe Saigon"]},
{"address1": ["\n2929 Arch Street\n"], "name": ["Wah-Gi-Wah"]},
{"address1": ["\n4239 Baltimore Ave\n"], "name": ["Hummus"]},
{"address1": ["\n4423 Chestnut St\n"], "name": ["JG Domestic"]},
{"address1": ["\n3401 Walnut St\n"], "name": ["Green Line Cafe"]},
{"address1": ["\n3606 Chestnut St\n"], "name": ["Kaffa Crossing"]},
{"address1": ["\n4345 Lancaster Ave\n"], "name": ["Mad Mex"]},
{"address1": ["\n106 S 40th St\n"], "name": ["Kiwi Yogurt"]},
{"address1": ["\n4013 Walnut St\n"], "name": ["Dwight's Southern Bar-B-Q"]},
{"address1": ["\n3604 Chestnut St\n"], "name": ["Tandoor India"]},
{"address1": ["\n700 N 43rd St\n"], "name": ["Metropolitan Bakery & Cafe"]},
{"address1": ["\n3942 Spruce St\n"], "name": ["Wawa"]},
{"address1": ["\n3131 Walnut St\n"], "name": ["Bottom of the Sea"]}]